{
  "project_info": {
    "project_number": "876232702114",
    "firebase_url": "https://vigilanteyes-bd456.firebaseio.com",
    "project_id": "vigilanteyes-bd456",
    "storage_bucket": "vigilanteyes-bd456.appspot.com"
  },
  "client": [
    {
      "client_info": {
        "mobilesdk_app_id": "1:876232702114:android:44350a64d43a33b0",
        "android_client_info": {
          "package_name": "ua.icm.vigilanteyes"
        }
      },
      "oauth_client": [
        {
          "client_id": "876232702114-63gm4g8j8vqtj4op3tr5996vflv1149v.apps.googleusercontent.com",
          "client_type": 1,
          "android_info": {
            "package_name": "ua.icm.vigilanteyes",
            "certificate_hash": "a727dbe5bee022f4525b6befc983f5d5649d1e37"
          }
        },
        {
          "client_id": "876232702114-69jmf3f0m2q1glu2am7nbeg743e91kj0.apps.googleusercontent.com",
          "client_type": 3
        }
      ],
      "api_key": [
        {
          "current_key": "AIzaSyC-7zmnZjI5zLJ2TU8M2_dDKK4HMj3hfs4"
        }
      ],
      "services": {
        "analytics_service": {
          "status": 1
        },
        "appinvite_service": {
          "status": 2,
          "other_platform_oauth_client": [
            {
              "client_id": "876232702114-69jmf3f0m2q1glu2am7nbeg743e91kj0.apps.googleusercontent.com",
              "client_type": 3
            }
          ]
        },
        "ads_service": {
          "status": 2
        }
      }
    }
  ],
  "configuration_version": "1"
}